tools/measurements/df45m024053-a2_fast.csv

X,CH1,CH2,Start,Increment,
Sequence,Volt,Volt,-1.400000e-02,2.000000e-05,
0,2.800000e+00,3.920000e+00,
1,2.560000e+00,4.080000e+00,
2,2.800000e+00,3.920000e+00,
3,2.560000e+00,4.080000e+00,
4,2.720000e+00,4.080000e+00,
5,2.480000e+00,3.920000e+00,
6,2.640000e+00,4.000000e+00,
7,2.400000e+00,4.160000e+00,
8,2.480000e+00,4.000000e+00,
9,2.240000e+00,4.160000e+00,
10,2.400000e+00,4.000000e+00,
11,2.080000e+00,4.160000e+00,
12,2.240000e+00,4.160000e+00,
13,2.000000e+00,4.000000e+00,
14,2.160000e+00,4.000000e+00,
15,1.840000e+00,4.240000e+00,
16,2.000000e+00,4.160000e+00,
17,1.760000e+00,4.000000e+00,
18,1.920000e+00,4.000000e+00,
19,1.600000e+00,4.160000e+00,
20,1.760000e+00,4.240000e+00,
21,1.520000e+00,3.920000e+00,
22,1.600000e+00,4.080000e+00,
23,1.360000e+00,3.920000e+00,
24,1.520000e+00,4.080000e+00,
25,1.200000e+00,3.920000e+00,
26,1.360000e+00,4.080000e+00,
27,1.040000e+00,3.840000e+00,
28,1.200000e+00,3.840000e+00,
29,8.800000e-01,4.080000e+00,
30,1.040000e+00,4.000000e+00,
31,7.200000e-01,3.760000e+00,
32,8.800000e-01,3.920000e+00,
33,6.400000e-01,3.680000e+00,
34,8.000000e-01,3.840000e+00,
35,4.800000e-01,3.680000e+00,
36,5.600000e-01,3.760000e+00,
37,3.200000e-01,3.600000e+00,
38,4.800000e-01,3.520000e+00,
39,1.600000e-01,3.760000e+00,
40,2.400000e-01,3.680000e+00,
41,0.000000e+00,3.440000e+00,
42,8.000000e-02,3.600000e+00,
43,-1.600000e-01,3.360000e+00,
44,0.000000e+00,3.520000e+00,
45,-3.200000e-01,3.280000e+00,
46,-2.400000e-01,3.440000e+00,
47,-5.600000e-01,3.120000e+00,
48,-4.000000e-01,3.360000e+00,
49,-6.400000e-01,3.120000e+00,
50,-5.600000e-01,3.200000e+00,
51,-8.000000e-01,2.960000e+00,
52,-7.200000e-01,3.120000e+00,
53,-9.600000e-01,2.880000e+00,
54,-7.200000e-01,2.800000e+00,
55,-1.120000e+00,3.120000e+00,
56,-9.600000e-01,2.880000e+00,
57,-1.280000e+00,2.640000e+00,
58,-1.120000e+00,2.800000e+00,
59,-1.360000e+00,2.560000e+00,
60,-1.280000e+00,2.720000e+00,
61,-1.600000e+00,2.480000e+00,
62,-1.440000e+00,2.640000e+00,
63,-1.680000e+00,2.320000e+00,
64,-1.520000e+00,2.480000e+00,
65,-1.840000e+00,2.240000e+00,
66,-1.680000e+00,2.320000e+00,
67,-1.920000e+00,2.080000e+00,
68,-1.760000e+00,2.240000e+00,
69,-2.080000e+00,2.000000e+00,
70,-1.920000e+00,2.080000e+00,
71,-2.240000e+00,1.840000e+00,
72,-2.000000e+00,2.000000e+00,
73,-2.320000e+00,1.760000e+00,
74,-2.160000e+00,1.840000e+00,
75,-2.400000e+00,1.600000e+00,
76,-2.560000e+00,1.440000e+00,
77,-2.160000e+00,1.840000e+00,
78,-2.400000e+00,1.600000e+00,
79,-2.640000e+00,1.280000e+00,
80,-2.480000e+00,1.440000e+00,
81,-2.720000e+00,1.200000e+00,
82,-2.560000e+00,1.280000e+00,
83,-2.880000e+00,1.040000e+00,
84,-2.720000e+00,1.200000e+00,
85,-3.040000e+00,8.000000e-01,
86,-2.800000e+00,1.040000e+00,
87,-3.040000e+00,7.200000e-01,
88,-3.120000e+00,8.800000e-01,
89,-2.880000e+00,5.600000e-01,
90,-3.280000e+00,7.200000e-01,
91,-2.960000e+00,4.000000e-01,
92,-3.120000e+00,5.600000e-01,
93,-3.360000e+00,2.400000e-01,
94,-3.440000e+00,4.800000e-01,
95,-3.120000e+00,8.000000e-02,
96,-3.280000e+00,2.400000e-01,
97,-3.520000e+00,-8.000000e-02,
98,-3.360000e+00,8.000000e-02,
99,-3.600000e+00,-2.400000e-01,
100,-3.280000e+00,-4.800000e-01,
101,-3.840000e+00,8.000000e-02,
102,-3.520000e+00,-2.400000e-01,
103,-3.760000e+00,-5.600000e-01,
104,-3.600000e+00,-4.000000e-01,
105,-3.760000e+00,-7.200000e-01,
106,-3.600000e+00,-5.600000e-01,
107,-3.920000e+00,-8.800000e-01,
108,-3.680000e+00,-7.200000e-01,
109,-3.920000e+00,-1.040000e+00,
110,-3.760000e+00,-8.000000e-01,
111,-3.920000e+00,-1.120000e+00,
112,-3.760000e+00,-9.600000e-01,
113,-4.000000e+00,-1.280000e+00,
114,-3.840000e+00,-1.120000e+00,
115,-4.000000e+00,-1.440000e+00,
116,-3.840000e+00,-1.280000e+00,
117,-4.080000e+00,-1.600000e+00,
118,-3.920000e+00,-1.440000e+00,
119,-4.080000e+00,-1.760000e+00,
120,-4.080000e+00,-1.520000e+00,
121,-3.920000e+00,-1.840000e+00,
122,-4.080000e+00,-1.680000e+00,
123,-3.920000e+00,-2.000000e+00,
124,-4.080000e+00,-1.760000e+00,
125,-3.920000e+00,-2.080000e+00,
126,-4.080000e+00,-1.920000e+00,
127,-3.920000e+00,-2.240000e+00,
128,-4.080000e+00,-2.000000e+00,
129,-3.920000e+00,-2.320000e+00,
130,-4.080000e+00,-2.080000e+00,
131,-3.840000e+00,-2.400000e+00,
132,-4.080000e+00,-2.240000e+00,
133,-3.840000e+00,-2.480000e+00,
134,-3.840000e+00,-2.400000e+00,
135,-4.080000e+00,-2.640000e+00,
136,-4.000000e+00,-2.480000e+00,
137,-3.760000e+00,-2.720000e+00,
138,-3.920000e+00,-2.560000e+00,
139,-3.760000e+00,-2.880000e+00,
140,-3.920000e+00,-2.720000e+00,
141,-3.680000e+00,-2.960000e+00,
142,-3.840000e+00,-2.800000e+00,
143,-3.600000e+00,-3.040000e+00,
144,-3.600000e+00,-2.880000e+00,
145,-3.840000e+00,-3.200000e+00,
146,-3.760000e+00,-3.040000e+00,
147,-3.520000e+00,-3.280000e+00,
148,-3.680000e+00,-3.120000e+00,
149,-3.440000e+00,-3.360000e+00,
150,-3.600000e+00,-3.200000e+00,
151,-3.360000e+00,-3.440000e+00,
152,-3.520000e+00,-3.280000e+00,
153,-3.280000e+00,-3.520000e+00,
154,-3.440000e+00,-3.360000e+00,
155,-3.200000e+00,-3.600000e+00,
156,-3.360000e+00,-3.440000e+00,
157,-3.120000e+00,-3.680000e+00,
158,-3.280000e+00,-3.520000e+00,
159,-3.040000e+00,-3.680000e+00,
160,-3.200000e+00,-3.600000e+00,
161,-2.960000e+00,-3.760000e+00,
162,-3.120000e+00,-3.600000e+00,
163,-2.800000e+00,-3.840000e+00,
164,-2.960000e+00,-3.840000e+00,
165,-2.720000e+00,-3.680000e+00,
166,-2.880000e+00,-3.920000e+00,
167,-2.640000e+00,-3.680000e+00,
168,-2.800000e+00,-3.760000e+00,
169,-2.480000e+00,-4.000000e+00,
170,-2.640000e+00,-3.840000e+00,
171,-2.400000e+00,-4.000000e+00,
172,-2.640000e+00,-3.840000e+00,
173,-2.320000e+00,-4.160000e+00,
174,-2.480000e+00,-3.840000e+00,
175,-2.160000e+00,-4.080000e+00,
176,-2.320000e+00,-3.920000e+00,
177,-2.080000e+00,-4.080000e+00,
178,-2.320000e+00,-4.160000e+00,
179,-2.000000e+00,-3.840000e+00,
180,-2.080000e+00,-3.920000e+00,
181,-1.840000e+00,-4.160000e+00,
182,-2.000000e+00,-4.080000e+00,
183,-1.680000e+00,-3.840000e+00,
184,-1.840000e+00,-4.080000e+00,
185,-1.520000e+00,-3.840000e+00,
186,-1.680000e+00,-4.000000e+00,
187,-1.440000e+00,-3.840000e+00,
188,-1.600000e+00,-4.000000e+00,
189,-1.360000e+00,-3.840000e+00,
190,-1.440000e+00,-4.000000e+00,
191,-1.200000e+00,-3.760000e+00,
192,-1.280000e+00,-4.000000e+00,
193,-1.040000e+00,-3.760000e+00,
194,-1.200000e+00,-3.920000e+00,
195,-8.800000e-01,-3.680000e+00,
196,-1.040000e+00,-3.680000e+00,
197,-7.200000e-01,-3.920000e+00,
198,-8.800000e-01,-3.840000e+00,
199,-5.600000e-01,-3.520000e+00,
200,-7.200000e-01,-3.760000e+00,
201,-4.000000e-01,-3.520000e+00,
202,-5.600000e-01,-3.680000e+00,
203,-3.200000e-01,-3.520000e+00,
204,-4.000000e-01,-3.440000e+00,
205,-8.000000e-02,-3.680000e+00,
206,-2.400000e-01,-3.600000e+00,
207,8.000000e-02,-3.360000e+00,
208,-1.600000e-01,-3.520000e+00,
209,2.400000e-01,-3.280000e+00,
210,8.000000e-02,-3.440000e+00,
211,4.000000e-01,-3.200000e+00,
212,2.400000e-01,-3.360000e+00,
213,5.600000e-01,-3.120000e+00,
214,4.000000e-01,-3.280000e+00,
215,6.400000e-01,-3.040000e+00,
216,5.600000e-01,-3.200000e+00,
217,8.800000e-01,-2.880000e+00,
218,6.400000e-01,-3.120000e+00,
219,9.600000e-01,-2.800000e+00,
220,8.000000e-01,-2.960000e+00,
221,1.120000e+00,-2.720000e+00,
222,9.600000e-01,-2.880000e+00,
223,1.280000e+00,-2.640000e+00,
224,1.120000e+00,-2.800000e+00,
225,1.440000e+00,-2.480000e+00,
226,1.200000e+00,-2.800000e+00,
227,1.520000e+00,-2.400000e+00,
228,1.440000e+00,-2.560000e+00,
229,1.680000e+00,-2.320000e+00,
230,1.520000e+00,-2.480000e+00,
231,1.760000e+00,-2.160000e+00,
232,1.680000e+00,-2.320000e+00,
233,1.920000e+00,-2.080000e+00,
234,1.760000e+00,-2.240000e+00,
235,2.080000e+00,-2.000000e+00,
236,1.920000e+00,-2.160000e+00,
237,2.160000e+00,-1.840000e+00,
238,2.320000e+00,-1.680000e+00,
239,2.000000e+00,-2.080000e+00,
240,2.160000e+00,-1.920000e+00,
241,2.400000e+00,-1.600000e+00,
242,2.240000e+00,-1.760000e+00,
243,2.560000e+00,-1.440000e+00,
244,2.400000e+00,-1.600000e+00,
245,2.720000e+00,-1.280000e+00,
246,2.480000e+00,-1.520000e+00,
247,2.720000e+00,-1.120000e+00,
248,2.560000e+00,-1.360000e+00,
249,2.880000e+00,-1.040000e+00,
250,2.640000e+00,-1.200000e+00,
251,3.040000e+00,-8.000000e-01,
252,2.800000e+00,-1.040000e+00,
253,3.040000e+00,-7.200000e-01,
254,2.880000e+00,-8.800000e-01,
255,3.120000e+00,-5.600000e-01,
256,2.960000e+00,-7.200000e-01,
257,3.280000e+00,-4.000000e-01,
258,3.120000e+00,-5.600000e-01,
259,3.360000e+00,-2.400000e-01,
260,3.200000e+00,-4.000000e-01,
261,3.440000e+00,-8.000000e-02,
262,3.280000e+00,-2.400000e-01,
263,3.520000e+00,8.000000e-02,
264,3.360000e+00,-8.000000e-02,
265,3.600000e+00,2.400000e-01,
266,3.360000e+00,8.000000e-02,
267,3.680000e+00,4.000000e-01,
268,3.520000e+00,2.400000e-01,
269,3.760000e+00,4.800000e-01,
270,3.600000e+00,4.000000e-01,
271,3.760000e+00,6.400000e-01,
272,3.600000e+00,5.600000e-01,
273,3.840000e+00,8.000000e-01,
274,3.680000e+00,7.200000e-01,
275,3.920000e+00,9.600000e-01,
276,4.000000e+00,8.000000e-01,
277,3.600000e+00,1.200000e+00,
278,4.000000e+00,1.040000e+00,
279,3.760000e+00,1.280000e+00,
280,4.000000e+00,1.200000e+00,
281,3.840000e+00,1.440000e+00,
282,3.840000e+00,1.280000e+00,
283,4.080000e+00,1.520000e+00,
284,3.920000e+00,1.440000e+00,
285,4.080000e+00,1.680000e+00,
286,3.920000e+00,1.600000e+00,
287,4.160000e+00,1.840000e+00,
288,3.920000e+00,1.680000e+00,
289,4.160000e+00,2.000000e+00,
290,4.160000e+00,1.840000e+00,
291,3.920000e+00,2.080000e+00,
292,4.160000e+00,2.000000e+00,
293,3.920000e+00,2.240000e+00,
294,4.160000e+00,2.080000e+00,
295,3.920000e+00,2.320000e+00,
296,3.920000e+00,2.160000e+00,
297,4.240000e+00,2.480000e+00,
298,3.600000e+00,2.080000e+00,
299,4.240000e+00,2.640000e+00,
300,4.080000e+00,2.400000e+00,
301,3.840000e+00,2.720000e+00,
302,4.080000e+00,2.560000e+00,
303,3.840000e+00,2.800000e+00,
304,4.000000e+00,2.640000e+00,
305,3.760000e+00,2.880000e+00,
306,4.000000e+00,2.720000e+00,
307,3.760000e+00,3.040000e+00,
308,3.920000e+00,2.880000e+00,
309,3.680000e+00,3.120000e+00,
310,3.520000e+00,2.880000e+00,
311,4.000000e+00,3.280000e+00,
312,3.840000e+00,3.120000e+00,
313,3.600000e+00,3.360000e+00,
314,3.440000e+00,3.120000e+00,
315,3.840000e+00,3.440000e+00,
316,3.680000e+00,3.280000e+00,
317,3.440000e+00,3.520000e+00,
318,3.600000e+00,3.680000e+00,
319,3.280000e+00,3.280000e+00,
320,3.520000e+00,3.440000e+00,
321,3.280000e+00,3.680000e+00,
322,3.200000e+00,3.440000e+00,
323,3.520000e+00,3.760000e+00,
324,3.440000e+00,3.600000e+00,
325,3.120000e+00,3.760000e+00,
326,3.280000e+00,3.680000e+00,
327,3.040000e+00,3.840000e+00,
328,3.200000e+00,3.760000e+00,
329,2.960000e+00,3.920000e+00,
330,2.720000e+00,3.680000e+00,
331,3.200000e+00,4.080000e+00,
332,2.640000e+00,3.760000e+00,
333,3.120000e+00,4.160000e+00,
334,2.880000e+00,3.920000e+00,
335,2.560000e+00,4.080000e+00,
336,2.800000e+00,3.920000e+00,
337,2.480000e+00,4.160000e+00,
338,2.640000e+00,4.000000e+00,
339,2.400000e+00,4.160000e+00,
340,2.560000e+00,4.160000e+00,
341,2.320000e+00,4.000000e+00,
342,2.480000e+00,4.160000e+00,
343,2.160000e+00,4.000000e+00,
344,2.320000e+00,4.000000e+00,
345,2.080000e+00,4.240000e+00,
346,2.240000e+00,4.240000e+00,
347,1.920000e+00,4.000000e+00,
348,2.080000e+00,4.240000e+00,
349,1.840000e+00,4.000000e+00,
350,2.000000e+00,4.000000e+00,
351,1.680000e+00,4.240000e+00,
352,1.840000e+00,4.000000e+00,
353,1.520000e+00,4.240000e+00,
354,1.680000e+00,4.160000e+00,
355,1.440000e+00,4.000000e+00,
356,1.520000e+00,4.160000e+00,
357,1.280000e+00,3.920000e+00,
358,1.440000e+00,4.080000e+00,
359,1.120000e+00,3.920000e+00,
360,1.280000e+00,4.080000e+00,
361,9.600000e-01,3.840000e+00,
362,1.120000e+00,4.000000e+00,
363,8.000000e-01,3.760000e+00,
364,9.600000e-01,4.000000e+00,
365,6.400000e-01,3.680000e+00,
366,8.000000e-01,3.920000e+00,
367,5.600000e-01,3.680000e+00,
368,7.200000e-01,3.680000e+00,
369,4.000000e-01,3.840000e+00,
370,4.800000e-01,3.760000e+00,
371,2.400000e-01,3.600000e+00,
372,3.200000e-01,3.760000e+00,
373,8.000000e-02,3.520000e+00,
374,2.400000e-01,3.760000e+00,
375,-3.200000e-01,3.200000e+00,
376,0.000000e+00,3.600000e+00,
377,-2.400000e-01,3.360000e+00,
378,-1.600000e-01,3.520000e+00,
379,-4.000000e-01,3.280000e+00,
380,-3.200000e-01,3.360000e+00,
381,-5.600000e-01,3.120000e+00,
382,-4.800000e-01,3.280000e+00,
383,-8.000000e-01,3.040000e+00,
384,-5.600000e-01,3.280000e+00,
385,-9.600000e-01,2.880000e+00,
386,-8.000000e-01,3.120000e+00,
387,-1.040000e+00,2.800000e+00,
388,-8.800000e-01,3.040000e+00,
389,-1.360000e+00,2.640000e+00,
390,-1.040000e+00,2.880000e+00,
391,-1.360000e+00,2.560000e+00,
392,-1.040000e+00,2.240000e+00,
393,-1.840000e+00,3.040000e+00,
394,-1.360000e+00,2.640000e+00,
395,-1.600000e+00,2.400000e+00,
396,-1.520000e+00,2.560000e+00,
397,-1.760000e+00,2.320000e+00,
398,-1.520000e+00,2.480000e+00,
399,-2.000000e+00,2.080000e+00,
400,-1.760000e+00,2.320000e+00,
401,-2.000000e+00,2.080000e+00,
402,-1.920000e+00,2.160000e+00,
403,-2.160000e+00,1.920000e+00,
404,-2.000000e+00,2.080000e+00,
405,-2.320000e+00,1.760000e+00,
406,-2.080000e+00,1.920000e+00,
407,-2.400000e+00,1.680000e+00,
408,-2.240000e+00,1.760000e+00,
409,-2.480000e+00,1.520000e+00,
410,-2.320000e+00,1.680000e+00,
411,-2.640000e+00,1.360000e+00,
412,-2.720000e+00,1.600000e+00,
413,-2.320000e+00,1.200000e+00,
414,-2.560000e+00,1.360000e+00,
415,-2.880000e+00,1.120000e+00,
416,-2.640000e+00,1.200000e+00,
417,-2.960000e+00,9.600000e-01,
418,-2.800000e+00,1.040000e+00,
419,-3.040000e+00,8.000000e-01,
420,-2.880000e+00,8.800000e-01,
421,-3.120000e+00,6.400000e-01,
422,-2.960000e+00,8.000000e-01,
423,-3.200000e+00,4.800000e-01,
424,-3.520000e+00,5.600000e-01,
425,-3.040000e+00,1.600000e-01,
426,-3.200000e+00,4.800000e-01,
427,-3.440000e+00,1.600000e-01,
428,-3.280000e+00,2.400000e-01,
429,-3.520000e+00,0.000000e+00,
430,-3.280000e+00,1.600000e-01,
431,-3.600000e+00,-2.400000e-01,
432,-3.360000e+00,-8.000000e-02,
433,-3.680000e+00,-4.000000e-01,
434,-3.520000e+00,-1.600000e-01,
435,-3.760000e+00,-4.800000e-01,
436,-4.080000e+00,-8.000000e-01,
437,-3.360000e+00,-1.600000e-01,
438,-3.680000e+00,-4.800000e-01,
439,-3.840000e+00,-8.000000e-01,
440,-3.680000e+00,-6.400000e-01,
441,-3.920000e+00,-9.600000e-01,
442,-3.760000e+00,-8.000000e-01,
443,-4.000000e+00,-1.120000e+00,
444,-3.840000e+00,-9.600000e-01,
445,-4.000000e+00,-1.280000e+00,
446,-4.000000e+00,-1.120000e+00,
447,-3.840000e+00,-1.440000e+00,
448,-3.920000e+00,-1.280000e+00,
449,-4.080000e+00,-1.600000e+00,
450,-4.080000e+00,-1.440000e+00,
451,-3.920000e+00,-1.680000e+00,
452,-3.920000e+00,-1.520000e+00,
453,-4.160000e+00,-1.840000e+00,
454,-4.160000e+00,-1.680000e+00,
455,-3.920000e+00,-2.000000e+00,
456,-4.160000e+00,-1.840000e+00,
457,-3.920000e+00,-2.080000e+00,
458,-4.160000e+00,-1.840000e+00,
459,-3.920000e+00,-2.240000e+00,
460,-4.320000e+00,-2.400000e+00,
461,-3.840000e+00,-2.000000e+00,
462,-4.080000e+00,-2.160000e+00,
463,-3.920000e+00,-2.400000e+00,
464,-4.080000e+00,-2.320000e+00,
465,-3.920000e+00,-2.560000e+00,
466,-4.080000e+00,-2.400000e+00,
467,-3.840000e+00,-2.640000e+00,
468,-4.000000e+00,-2.480000e+00,
469,-3.840000e+00,-2.720000e+00,
470,-4.000000e+00,-2.560000e+00,
471,-3.760000e+00,-2.880000e+00,
472,-3.920000e+00,-2.720000e+00,
473,-3.680000e+00,-2.960000e+00,
474,-4.000000e+00,-2.800000e+00,
475,-3.600000e+00,-3.200000e+00,
476,-3.840000e+00,-2.960000e+00,
477,-3.600000e+00,-3.200000e+00,
478,-3.760000e+00,-3.040000e+00,
479,-3.520000e+00,-3.280000e+00,
480,-3.680000e+00,-3.120000e+00,
481,-3.440000e+00,-3.360000e+00,
482,-3.600000e+00,-3.200000e+00,
483,-3.280000e+00,-3.520000e+00,
484,-3.520000e+00,-3.280000e+00,
485,-3.280000e+00,-3.520000e+00,
486,-3.440000e+00,-3.360000e+00,
487,-3.200000e+00,-3.600000e+00,
488,-3.360000e+00,-3.440000e+00,
489,-3.120000e+00,-3.680000e+00,
490,-3.280000e+00,-3.520000e+00,
491,-3.040000e+00,-3.760000e+00,
492,-3.200000e+00,-3.600000e+00,
493,-2.960000e+00,-3.840000e+00,
494,-3.120000e+00,-3.680000e+00,
495,-2.800000e+00,-3.920000e+00,
496,-2.960000e+00,-3.680000e+00,
497,-2.720000e+00,-3.920000e+00,
498,-2.880000e+00,-3.760000e+00,
499,-2.640000e+00,-4.000000e+00,
500,-2.800000e+00,-3.840000e+00,
501,-2.480000e+00,-4.000000e+00,
502,-2.640000e+00,-3.840000e+00,
503,-2.400000e+00,-4.080000e+00,
504,-2.560000e+00,-4.080000e+00,
505,-2.320000e+00,-3.840000e+00,
506,-2.480000e+00,-4.080000e+00,
507,-2.160000e+00,-3.920000e+00,
508,-2.320000e+00,-3.840000e+00,
509,-2.000000e+00,-4.240000e+00,
510,-2.240000e+00,-3.920000e+00,
511,-1.920000e+00,-4.160000e+00,
512,-2.080000e+00,-4.000000e+00,
513,-1.840000e+00,-4.160000e+00,
514,-2.000000e+00,-4.320000e+00,
515,-1.520000e+00,-3.840000e+00,
516,-1.840000e+00,-4.160000e+00,
517,-1.520000e+00,-3.920000e+00,
518,-1.680000e+00,-4.080000e+00,
519,-1.440000e+00,-3.920000e+00,
520,-1.600000e+00,-4.080000e+00,
521,-1.280000e+00,-3.760000e+00,
522,-1.440000e+00,-4.080000e+00,
523,-1.120000e+00,-3.840000e+00,
524,-1.280000e+00,-4.000000e+00,
525,-9.600000e-01,-3.840000e+00,
526,-1.280000e+00,-4.240000e+00,
527,-6.400000e-01,-3.600000e+00,
528,-9.600000e-01,-3.920000e+00,
529,-7.200000e-01,-3.680000e+00,
530,-8.800000e-01,-3.920000e+00,
531,-5.600000e-01,-3.680000e+00,
532,-8.800000e-01,-4.080000e+00,
533,-2.400000e-01,-3.440000e+00,
534,-4.800000e-01,-3.760000e+00,
535,-1.600000e-01,-3.520000e+00,
536,-3.200000e-01,-3.680000e+00,
537,-8.000000e-02,-3.440000e+00,
538,-1.600000e-01,-3.600000e+00,
539,1.600000e-01,-3.360000e+00,
540,0.000000e+00,-3.520000e+00,
541,3.200000e-01,-3.280000e+00,
542,1.600000e-01,-3.440000e+00,
543,4.800000e-01,-3.200000e+00,
544,3.200000e-01,-3.360000e+00,
545,6.400000e-01,-3.120000e+00,
546,4.800000e-01,-3.280000e+00,
547,8.000000e-01,-3.040000e+00,
548,6.400000e-01,-3.200000e+00,
549,9.600000e-01,-2.960000e+00,
550,8.000000e-01,-3.120000e+00,
551,1.040000e+00,-2.800000e+00,
552,8.800000e-01,-3.040000e+00,
553,1.200000e+00,-2.720000e+00,
554,1.120000e+00,-2.880000e+00,
555,1.360000e+00,-2.640000e+00,
556,1.200000e+00,-2.720000e+00,
557,1.520000e+00,-2.480000e+00,
558,1.360000e+00,-2.640000e+00,
559,1.680000e+00,-2.400000e+00,
560,1.520000e+00,-2.560000e+00,
561,2.000000e+00,-2.080000e+00,
562,1.600000e+00,-2.400000e+00,
563,1.920000e+00,-2.160000e+00,
564,1.760000e+00,-2.320000e+00,
565,2.080000e+00,-2.000000e+00,
566,1.920000e+00,-2.160000e+00,
567,2.160000e+00,-1.920000e+00,
568,2.000000e+00,-2.080000e+00,
569,2.240000e+00,-1.760000e+00,
570,2.160000e+00,-1.920000e+00,
571,2.480000e+00,-1.600000e+00,
572,2.240000e+00,-1.840000e+00,
573,2.480000e+00,-1.520000e+00,
574,2.400000e+00,-1.680000e+00,
575,2.640000e+00,-1.360000e+00,
576,2.480000e+00,-1.520000e+00,
577,2.720000e+00,-1.280000e+00,
578,2.560000e+00,-1.360000e+00,
579,2.960000e+00,-1.040000e+00,
580,2.560000e+00,-1.360000e+00,
581,2.960000e+00,-9.600000e-01,
582,2.800000e+00,-1.120000e+00,
583,3.040000e+00,-8.000000e-01,
584,2.800000e+00,-9.600000e-01,
585,3.360000e+00,-4.800000e-01,
586,3.040000e+00,-8.000000e-01,
587,3.280000e+00,-4.800000e-01,
588,3.120000e+00,-6.400000e-01,
589,3.360000e+00,-3.200000e-01,
590,3.200000e+00,-4.800000e-01,
591,3.440000e+00,-1.600000e-01,
592,3.280000e+00,-3.200000e-01,
593,3.520000e+00,0.000000e+00,
594,3.280000e+00,-1.600000e-01,
595,3.760000e+00,2.400000e-01,
596,3.360000e+00,-8.000000e-02,
597,3.760000e+00,4.000000e-01,
598,3.440000e+00,8.000000e-02,
599,3.840000e+00,5.600000e-01,
600,3.600000e+00,4.000000e-01,
601,3.840000e+00,6.400000e-01,
602,3.680000e+00,4.800000e-01,
603,3.920000e+00,8.000000e-01,
604,3.760000e+00,6.400000e-01,
605,3.920000e+00,9.600000e-01,
606,3.760000e+00,8.000000e-01,
607,4.000000e+00,1.120000e+00,
608,3.840000e+00,9.600000e-01,
609,4.000000e+00,1.280000e+00,
610,3.840000e+00,1.120000e+00,
611,4.080000e+00,1.440000e+00,
612,4.160000e+00,1.280000e+00,
613,3.840000e+00,1.600000e+00,
614,3.920000e+00,1.440000e+00,
615,4.160000e+00,1.680000e+00,
616,3.920000e+00,1.520000e+00,
617,4.160000e+00,1.840000e+00,
618,4.000000e+00,1.680000e+00,
619,4.160000e+00,1.920000e+00,
620,3.920000e+00,1.840000e+00,
621,4.240000e+00,2.160000e+00,
622,3.920000e+00,1.920000e+00,
623,4.160000e+00,2.160000e+00,
624,4.160000e+00,2.080000e+00,
